Data exploration in R
…
Getting to know your data

Once we have data loaded, it is always wise to familiarize ourselves with variables in the dataset, both individually and their relationships.

First we will read in some data and store it in the object we name d. We prefer short names for objects that we will use frequently.

The dataset contains several school, test, and demographic variables for 200 students.

In this section, we will explore data with both numeric summaries and graphical depictions.

library(tidyverse)
d <- read_csv("https://stats.idre.ucla.edu/stat/data/hsbraw.csv")

d
#> # A tibble: 200 x 13
#>       id female    ses schtyp     prog  read write  math science socst
#>    <int>  <chr>  <chr>  <chr>    <chr> <int> <int> <int>   <int> <int>
#>  1    45 female    low public vocation    34    35    41      29    26
#>  2   108   male middle public  general    34    33    41      36    36
#>  3    15   male   high public vocation    39    39    44      26    42
#>  4    67   male    low public vocation    37    37    42      33    32
#>  5   153   male middle public vocation    39    31    40      39    51
#>  6    51 female   high public  general    42    36    42      31    39
#>  7   164   male middle public vocation    31    36    46      39    46
#>  8   133   male middle public vocation    50    31    40      34    31
#>  9     2 female middle public vocation    39    41    33      42    41
#> 10    53   male middle public vocation    34    37    46     -99   -99
#> # ... with 190 more rows, and 3 more variables: honors <chr>,
#> #   awards <int>, cid <int>
…
# read data in
d <- read_csv("https://stats.idre.ucla.edu/stat/data/hsbraw.csv")

Sorting

We can sort the order of rows in our data frame by variable values using the arrange function from the dplyr package (part of tidyverse).

Here we are requesting that arrange sort by science, and then by socst. The function arrange returns the sorted dataset.

Hmmm, we see those -99 values again!

d <- arrange(d, science, socst)
d
#> # A tibble: 200 x 13
#>       id female    ses  schtyp     prog  read write  math science socst
#>    <int>  <chr>  <chr>   <chr>    <chr> <int> <int> <int>   <int> <int>
#>  1    53   male middle  public vocation    34    37    46     -99   -99
#>  2   191 female   high private academic    47    52    43     -99   -99
#>  3     9   male middle  public vocation    48    49    52     -99   -99
#>  4   159   male   high  public academic    55    61    54     -99   -99
#>  5    71 female middle  public  general    57    62    56     -99   -99
#>  6   144   male   high  public  general    60    65    58     -99   -99
#>  7    61 female   high  public academic    76    63    60     -99   -99
#>  8    15   male   high  public vocation    39    39    44      26    42
#>  9    45 female    low  public vocation    34    35    41      29    26
#> 10    51 female   high  public  general    42    36    42      31    39
#> # ... with 190 more rows, and 3 more variables: honors <chr>,
#> #   awards <int>, cid <int>
…
"" (blank field)

-99

"-99" for character variables

"NA"

We can see some NA values in science and socst.

# read in data, specifying missing data codes
d <- read_csv("https://stats.idre.ucla.edu/stat/data/hsbraw.csv",
              na=c("", -99, "-99", "NA"))
d
#> # A tibble: 200 x 13
#>       id female    ses schtyp     prog  read write  math science socst
#>    <int>  <chr>  <chr>  <chr>    <chr> <int> <int> <int>   <int> <int>
#>  1    45 female    low public vocation    34    35    41      29    26
#>  2   108   male middle public  general    34    33    41      36    36
#>  3    15   male   high public vocation    39    39    44      26    42
#>  4    67   male    low public vocation    37    37    42      33    32
#>  5   153   male middle public vocation    39    31    40      39    51
#>  6    51 female   high public  general    42    36    42      31    39
#>  7   164   male middle public vocation    31    36    46      39    46
#>  8   133   male middle public vocation    50    31    40      34    31
#>  9     2 female middle public vocation    39    41    33      42    41
#> 10    53   male middle public vocation    34    37    46      NA    NA
#> # ... with 190 more rows, and 3 more variables: honors <chr>,
#> #   awards <int>, cid <int>
…
Select all columns between read and science (inclusive)

select(d, read:science)
#> # A tibble: 200 x 4
#>     read write  math science
#>    <int> <int> <int>   <int>
#>  1    34    35    41      29
#>  2    34    33    41      36
#>  3    39    39    44      26
#>  4    37    37    42      33
#>  5    39    31    40      39
#>  6    42    36    42      31
#>  7    31    36    46      39
#>  8    50    31    40      34
#>  9    39    41    33      42
#> 10    34    37    46      NA
#> # ... with 190 more rows

Select all columns except those from read to science (inclusive)

select(d, -(read:science))
#> # A tibble: 200 x 17
#>       id female    ses schtyp     prog socst       honors awards   cid
#>    <int>  <chr>  <chr>  <chr>    <chr> <int>        <chr>  <int> <int>
#>  1    45 female    low public vocation    26 not enrolled      0     1
#>  2   108   male middle public  general    36 not enrolled      0     1
#>  3    15   male   high public vocation    42 not enrolled      0     1
#>  4    67   male    low public vocation    32 not enrolled      0     1
#>  5   153   male middle public vocation    51 not enrolled      0     1
#>  6    51 female   high public  general    39 not enrolled      0     1
#>  7   164   male middle public vocation    46 not enrolled      0     1
#>  8   133   male middle public vocation    31 not enrolled      0     1
#>  9     2 female middle public vocation    41 not enrolled      0     1
#> 10    53   male middle public vocation    NA not enrolled      0     1
#> # ... with 190 more rows, and 8 more variables: prog_short <chr>,
#> #   schtyp_ses1 <chr>, schtyp_ses2 <chr>, logwrite <dbl>, logmath <dbl>,
#> #   mathrank <int>, mathgrade <fctr>, zmath <dbl>
…
ends_with("xyz"): matches names that end with "xyz".

contains("ijk"): matches names that contain "ijk".

matches("(.)\\1"): selects variables that match a regular expression. This one matches any variables that contain repeated characters.

num_range("x", 1:3) matches x1, x2 and x3.

See ?select for more details.

Another option is to use select() in conjunction with the everything() helper. This is useful if you have a handful of variables you'd like to move to the start of the data frame.

select(d, read, write, everything())
#> # A tibble: 200 x 21
#>     read write    id female    ses schtyp     prog  math science socst
#>    <int> <int> <int>  <chr>  <chr>  <chr>    <chr> <int>   <int> <int>
#>  1    34    35    45 female    low public vocation    41      29    26
#>  2    34    33   108   male middle public  general    41      36    36
#>  3    39    39    15   male   high public vocation    44      26    42
#>  4    37    37    67   male    low public vocation    42      33    32
#>  5    39    31   153   male middle public vocation    40      39    51
#>  6    42    36    51 female   high public  general    42      31    39
#>  7    31    36   164   male middle public vocation    46      39    46
#>  8    50    31   133   male middle public vocation    40      34    31
#>  9    39    41     2 female middle public vocation    33      42    41
#> 10    34    37    53   male middle public vocation    46      NA    NA
#> # ... with 190 more rows, and 11 more variables: honors <chr>,
#> #   awards <int>, cid <int>, prog_short <chr>, schtyp_ses1 <chr>,
#> #   schtyp_ses2 <chr>, logwrite <dbl>, logmath <dbl>, mathrank <int>,
#> #   mathgrade <fctr>, zmath <dbl>
…
