Introduction to R
…
In the output for read_csv() and read_delim(), you'll see the data type of each column.

# comma separated values
dat_csv <- read_csv("https://stats.idre.ucla.edu/stat/data/hsbdemo.csv")

# tab separated values
dat_tab <- read_delim("https://stats.idre.ucla.edu/stat/data/hsb2.txt", 
                      delim="\t")

Tibbles

If you attempt to print a data frame read in by read_csv() or read_delim(), it prints in special way:

dat_csv
#> # A tibble: 200 x 13
#>       id female    ses schtyp     prog  read write  math science socst
#>    <int>  <chr>  <chr>  <chr>    <chr> <int> <int> <int>   <int> <int>
#>  1    45 female    low public vocation    34    35    41      29    26
#>  2   108   male middle public  general    34    33    41      36    36
#>  3    15   male   high public vocation    39    39    44      26    42
#>  4    67   male    low public vocation    37    37    42      33    32
#>  5   153   male middle public vocation    39    31    40      39    51
#>  6    51 female   high public  general    42    36    42      31    39
#>  7   164   male middle public vocation    31    36    46      39    46
#>  8   133   male middle public vocation    50    31    40      34    31
#>  9     2 female middle public vocation    39    41    33      42    41
#> 10    53   male middle public vocation    34    37    46      39    31
#> # ... with 190 more rows, and 3 more variables: honors <chr>,
#> #   awards <int>, cid <int>
…
Getting to know your data

Once we have data loaded, it is always wise to familiarize ourselves with variables in the dataset, both individually and their relationships.

First we will read in some data and store it in the object we name d. We prefer short names for objects that we will use frequently.

The dataset contains several school, test, and demographic variables for 200 students.

In this section, we will explore data with both numeric summaries and graphical depictions.

d <- read_csv("https://stats.idre.ucla.edu/stat/data/hsbraw.csv")

d
#> # A tibble: 200 x 13
#>       id female    ses schtyp     prog  read write  math science socst
#>    <int>  <chr>  <chr>  <chr>    <chr> <int> <int> <int>   <int> <int>
#>  1    45 female    low public vocation    34    35    41      29    26
#>  2   108   male middle public  general    34    33    41      36    36
#>  3    15   male   high public vocation    39    39    44      26    42
#>  4    67   male    low public vocation    37    37    42      33    32
#>  5   153   male middle public vocation    39    31    40      39    51
#>  6    51 female   high public  general    42    36    42      31    39
#>  7   164   male middle public vocation    31    36    46      39    46
#>  8   133   male middle public vocation    50    31    40      34    31
#>  9     2 female middle public vocation    39    41    33      42    41
#> 10    53   male middle public vocation    34    37    46     -99   -99
#> # ... with 190 more rows, and 3 more variables: honors <chr>,
#> #   awards <int>, cid <int>
…
# read data in
d <- read_csv("https://stats.idre.ucla.edu/stat/data/hsbraw.csv")

Sorting

We can sort the order of rows in our data frame by variable values using the arrange function from the dplyr package (part of tidyverse).

Here we are requesting that arrange sort by science, and then by socst. The function arrange returns the sorted dataset.

Hmmm, we see those -99 values again

d <- arrange(d, science, socst)
d
#> # A tibble: 200 x 13
#>       id female    ses  schtyp     prog  read write  math science socst
#>    <int>  <chr>  <chr>   <chr>    <chr> <int> <int> <int>   <int> <int>
#>  1    53   male middle  public vocation    34    37    46     -99   -99
#>  2   191 female   high private academic    47    52    43     -99   -99
#>  3     9   male middle  public vocation    48    49    52     -99   -99
#>  4   159   male   high  public academic    55    61    54     -99   -99
#>  5    71 female middle  public  general    57    62    56     -99   -99
#>  6   144   male   high  public  general    60    65    58     -99   -99
#>  7    61 female   high  public academic    76    63    60     -99   -99
#>  8    15   male   high  public vocation    39    39    44      26    42
#>  9    45 female    low  public vocation    34    35    41      29    26
#> 10    51 female   high  public  general    42    36    42      31    39
#> # ... with 190 more rows, and 3 more variables: honors <chr>,
#> #   awards <int>, cid <int>
…
"" (blank field)

-99

"-99" for character variables

"NA"

We can see some NA values in science and socst.

# read in data, specifying missing data codes
d <- read_csv("https://stats.idre.ucla.edu/stat/data/hsbraw.csv",
              na=c("", -99, "-99", "NA"))
d
#> # A tibble: 200 x 13
#>       id female    ses schtyp     prog  read write  math science socst
#>    <int>  <chr>  <chr>  <chr>    <chr> <int> <int> <int>   <int> <int>
#>  1    45 female    low public vocation    34    35    41      29    26
#>  2   108   male middle public  general    34    33    41      36    36
#>  3    15   male   high public vocation    39    39    44      26    42
#>  4    67   male    low public vocation    37    37    42      33    32
#>  5   153   male middle public vocation    39    31    40      39    51
#>  6    51 female   high public  general    42    36    42      31    39
#>  7   164   male middle public vocation    31    36    46      39    46
#>  8   133   male middle public vocation    50    31    40      34    31
#>  9     2 female middle public vocation    39    41    33      42    41
#> 10    53   male middle public vocation    34    37    46      NA    NA
#> # ... with 190 more rows, and 3 more variables: honors <chr>,
#> #   awards <int>, cid <int>
…
